***6**3*3**6***
**2**4***4**2**
*2**2*****2**2*
6**3***4***3**6
**2***2*2***2**
*4***3***3***4*
3***2*****2***3
***4***f***c***
3***2**e**2r**3
*4***3*animals*
**2***2t2**v2**
6**3***h***edge
*2**2**e**2**2*
**2**4*r*4**2**
***dongs3**6***
